[
  {
    "name": " white bear",
    "price": "30",
    "url": "cardPhoto/whitebear.jfif",
    "article": "3132",
    "color": "#b2f3b2"
  },
  {
    "name": "brown bear",
    "price": "35",
    "url": "cardPhoto/brownbear.jfif",
    "article": "4222",
    "color": "#b2f3b2"
  },
  {
    "name": "blue elephant",
    "price": "50",
    "url": "cardPhoto/blueslon.jpg",
    "article": "4902",
    "color": "#b2f3b2"
  },
  {
    "name": "pink elephant",
    "price": "50",
    "url": "cardPhoto/pinkslon.jpg",
    "article": "4951",
    "color": "#b2f3b2"
  },
  {
    "name": "dinosaur",
    "price": "100",
    "url": "cardPhoto/dino.jfif",
    "article": "0111",
    "color": "#b2f3b2"
  },
  {
    "name": "LEGO Avangers",
    "price": "140",
    "url": "cardPhoto/lego.jfif",
    "article": "0000",
    "color": "#b2f3b2"
  },
  {
    "name": "LEGO Space Station",
    "price": "1800",
    "url": "cardPhoto/ideas.jfif",
    "article": "0099",
    "color": "#b2f3b2"
  },
  {
    "name": "Yellow car",
    "price": "25",
    "url": "cardPhoto/car.jfif",
    "article": "4109",
    "color": "#b2f3b2"
  },
  {
    "name": "Red car",
    "price": "45",
    "url": "cardPhoto/rcar.jfif",
    "article": "4831",
    "color": "#b2f3b2"
  },
  {
    "name": "Police car",
    "price": "100",
    "url": "cardPhoto/police.jfif",
    "article": "4899",
    "color": "#b2f3b2"
  }
]